<?xml version="1.0" encoding="utf-8"?>
<!-- Generator: Adobe Illustrator 19.1.0, SVG Export Plug-In . SVG Version: 6.00 Build 0)  -->
<svg version="1.1" id="Layer_1" xmlns="http://www.w3.org/2000/svg" xmlns:xlink="http://www.w3.org/1999/xlink" x="0px" y="0px"
	 viewBox="0 0 110 30" style="enable-background:new 0 0 110 30;" xml:space="preserve">
<style type="text/css">
	.st0{fill:#E7522C;}
	.st1{fill:#CEC8B7;}
	.st2{filter:url(#Adobe_OpacityMaskFilter);}
	.st3{fill:#FFFFFF;}
	.st4{mask:url(#SVGID_1_);}
	.st5{fill:#BCBEC0;}
</style>
<g>
	<g>
		<path class="st0" d="M25.1,0c4.3,0,8.6,0,12.9,0c0.4,0.4,0.5,0.8,0.6,1.3c0.6,2.5,0.9,5,1,7.6c0,1.2-0.1,2.3-0.2,3.5
			c-0.1,1.3-0.4,2.7-0.8,4c-0.5,1.6-1.1,3.2-1.6,4.9c-0.3,1-0.4,2-0.2,3c0.3,1.5,0.8,2.8,1.5,4.1c0.3,0.5,0,1.3-0.5,1.5
			c-0.1,0-0.2,0.1-0.2,0.1c-0.2,0-0.3,0-0.5,0c0,0-0.1,0-0.1-0.1c-1.5-0.1-3-0.3-4.4-0.4c-1.7-0.1-3.4,0-5.2,0.2
			c-0.5,0.1-1,0.2-1.4,0.2c-0.2,0-0.3,0-0.5,0c-0.1,0-0.1-0.1-0.2-0.1c-0.6-0.3-0.8-0.9-0.6-1.6c0.4-0.8,0.7-1.5,1-2.3
			c0.6-1.6,0.8-3.2,0.2-4.9c-0.4-1.2-0.8-2.4-1.2-3.5c-0.7-2.2-1.2-4.4-1.3-6.7c-0.1-2.1,0-4.1,0.3-6.2c0.2-1.2,0.4-2.4,0.7-3.6
			C24.6,0.8,24.9,0.4,25.1,0z M30,25.5c0-0.1,0-0.1,0-0.2c0.5-1.4,0.4-2.8,0-4.2c-0.4-1.1-0.8-2.3-1.1-3.4c-1.1-3.2-1.5-6.5-1.3-9.8
			c0-0.3,0-0.6,0.1-0.9c0.1,0,0.1,0,0.1,0c1.2,0,2.4,0,3.7,0c0.7,0,1,0.2,1.2,0.9c0,0.2,0.1,0.4,0.1,0.5c0.2,1-0.1,1.9-0.3,2.9
			c-0.1,0.6-0.3,1.2-0.2,1.8c0.1,0.5,0.5,0.8,1.1,0.8c0.6,0,1-0.2,1.1-0.8c0.1-0.3,0.1-0.6,0-0.9c-0.1-0.7-0.3-1.3-0.4-1.9
			c-0.2-0.9-0.2-1.8,0.1-2.6c0.2-0.4,0.5-0.6,0.9-0.6c0.6,0,1.2,0,1.8,0c0.1,0,0.2,0,0.4,0c-0.2-1.6-0.4-3.1-0.7-4.6
			c-3.4,0-6.7,0-10,0c0,0.1-0.1,0.3-0.1,0.4c-0.3,1.7-0.5,3.4-0.7,5.2c-0.2,2.7,0,5.3,0.8,7.8c0.5,1.6,1.1,3.2,1.6,4.8
			c0.4,1.1,0.5,2.3,0.4,3.5c-0.1,1-0.4,2-0.7,3c0,0.1-0.1,0.2-0.1,0.4c2.6-0.3,5.1-0.3,7.6,0c-0.2-0.5-0.3-1-0.4-1.4
			c-0.1-0.2-0.2-0.3-0.4-0.3c-1.3-0.2-2.5-0.3-3.8-0.2C30.5,25.4,30.3,25.4,30,25.5z"/>
		<path class="st0" d="M26,30c0.5-0.1,1-0.2,1.4-0.2c1.7-0.2,3.4-0.3,5.2-0.2c1.5,0.1,3,0.3,4.4,0.4c0,0,0.1,0,0.1,0.1
			C33.4,30,29.7,30,26,30z"/>
	</g>
</g>
<g>
	<g>
		<path class="st1" d="M48.6,0c4.3,0,8.6,0,12.9,0c0.4,0.4,0.5,0.8,0.6,1.3c0.6,2.5,0.9,5,1,7.6c0,1.2-0.1,2.3-0.2,3.5
			c-0.1,1.3-0.4,2.7-0.8,4c-0.5,1.6-1.1,3.2-1.6,4.9c-0.3,1-0.4,2-0.2,3c0.3,1.5,0.8,2.8,1.5,4.1c0.3,0.5,0,1.3-0.5,1.5
			c-0.1,0-0.2,0.1-0.2,0.1c-0.2,0-0.3,0-0.5,0c0,0-0.1,0-0.1-0.1c-1.5-0.1-3-0.3-4.4-0.4c-1.7-0.1-3.4,0-5.2,0.2
			c-0.5,0.1-1,0.2-1.4,0.2c-0.2,0-0.3,0-0.5,0c-0.1,0-0.1-0.1-0.2-0.1c-0.6-0.3-0.8-0.9-0.6-1.6c0.4-0.8,0.7-1.5,1-2.3
			c0.6-1.6,0.8-3.2,0.2-4.9c-0.4-1.2-0.8-2.4-1.2-3.5c-0.7-2.2-1.2-4.4-1.3-6.7c-0.1-2.1,0-4.1,0.3-6.2c0.2-1.2,0.4-2.4,0.7-3.6
			C48.1,0.8,48.4,0.4,48.6,0z M53.5,25.5c0-0.1,0-0.1,0-0.2c0.5-1.4,0.4-2.8,0-4.2c-0.4-1.1-0.8-2.3-1.1-3.4
			c-1.1-3.2-1.5-6.5-1.3-9.8c0-0.3,0-0.6,0.1-0.9c0.1,0,0.1,0,0.1,0c1.2,0,2.4,0,3.7,0c0.7,0,1,0.2,1.2,0.9c0,0.2,0.1,0.4,0.1,0.5
			c0.2,1-0.1,1.9-0.3,2.9c-0.1,0.6-0.3,1.2-0.2,1.8c0.1,0.5,0.5,0.8,1.1,0.8c0.6,0,1-0.2,1.1-0.8c0.1-0.3,0.1-0.6,0-0.9
			c-0.1-0.7-0.3-1.3-0.4-1.9c-0.2-0.9-0.2-1.8,0.1-2.6c0.2-0.4,0.5-0.6,0.9-0.6c0.6,0,1.2,0,1.8,0c0.1,0,0.2,0,0.4,0
			c-0.2-1.6-0.4-3.1-0.7-4.6c-3.4,0-6.7,0-10,0C50,2.5,50,2.6,50,2.7c-0.3,1.7-0.5,3.4-0.7,5.2c-0.2,2.7,0,5.3,0.8,7.8
			c0.5,1.6,1.1,3.2,1.6,4.8c0.4,1.1,0.5,2.3,0.4,3.5c-0.1,1-0.4,2-0.7,3c0,0.1-0.1,0.2-0.1,0.4c2.6-0.3,5.1-0.3,7.6,0
			c-0.2-0.5-0.3-1-0.4-1.4c-0.1-0.2-0.2-0.3-0.4-0.3c-1.3-0.2-2.5-0.3-3.8-0.2C53.9,25.4,53.7,25.4,53.5,25.5z"/>
	</g>
	<path class="st1" d="M49.4,30c0.5-0.1,1-0.2,1.4-0.2c1.7-0.2,3.4-0.3,5.2-0.2c1.5,0.1,3,0.3,4.4,0.4c0,0,0.1,0,0.1,0.1
		C56.9,30,53.1,30,49.4,30z"/>
	<defs>
		<filter id="Adobe_OpacityMaskFilter" filterUnits="userSpaceOnUse" x="46.9" y="0" width="16.1" height="30">
			<feColorMatrix  type="matrix" values="1 0 0 0 0  0 1 0 0 0  0 0 1 0 0  0 0 0 1 0"/>
		</filter>
	</defs>
	<mask maskUnits="userSpaceOnUse" x="46.9" y="0" width="16.1" height="30" id="SVGID_1_">
		<g class="st2">
			<rect x="45.8" y="-1" class="st3" width="9.7" height="31.9"/>
		</g>
	</mask>
	<g class="st4">
		<path class="st0" d="M48.6,0c4.3,0,8.6,0,12.9,0c0.4,0.4,0.5,0.8,0.6,1.3c0.6,2.5,0.9,5,1,7.6c0,1.2-0.1,2.3-0.2,3.5
			c-0.1,1.3-0.4,2.7-0.8,4c-0.5,1.6-1.1,3.2-1.6,4.9c-0.3,1-0.4,2-0.2,3c0.3,1.5,0.8,2.8,1.5,4.1c0.3,0.5,0,1.3-0.5,1.5
			c-0.1,0-0.2,0.1-0.2,0.1c-0.2,0-0.3,0-0.5,0c0,0-0.1,0-0.1-0.1c-1.5-0.1-3-0.3-4.4-0.4c-1.7-0.1-3.4,0-5.2,0.2
			c-0.5,0.1-1,0.2-1.4,0.2c-0.2,0-0.3,0-0.5,0c-0.1,0-0.1-0.1-0.2-0.1c-0.6-0.3-0.8-0.9-0.6-1.6c0.4-0.8,0.7-1.5,1-2.3
			c0.6-1.6,0.8-3.2,0.2-4.9c-0.4-1.2-0.8-2.4-1.2-3.5c-0.7-2.2-1.2-4.4-1.3-6.7c-0.1-2.1,0-4.1,0.3-6.2c0.2-1.2,0.4-2.4,0.7-3.6
			C48.1,0.8,48.4,0.4,48.6,0z M53.5,25.5c0-0.1,0-0.1,0-0.2c0.5-1.4,0.4-2.8,0-4.2c-0.4-1.1-0.8-2.3-1.1-3.4
			c-1.1-3.2-1.5-6.5-1.3-9.8c0-0.3,0-0.6,0.1-0.9c0.1,0,0.1,0,0.1,0c1.2,0,2.4,0,3.7,0c0.7,0,1,0.2,1.2,0.9c0,0.2,0.1,0.4,0.1,0.5
			c0.2,1-0.1,1.9-0.3,2.9c-0.1,0.6-0.3,1.2-0.2,1.8c0.1,0.5,0.5,0.8,1.1,0.8c0.6,0,1-0.2,1.1-0.8c0.1-0.3,0.1-0.6,0-0.9
			c-0.1-0.7-0.3-1.3-0.4-1.9c-0.2-0.9-0.2-1.8,0.1-2.6c0.2-0.4,0.5-0.6,0.9-0.6c0.6,0,1.2,0,1.8,0c0.1,0,0.2,0,0.4,0
			c-0.2-1.6-0.4-3.1-0.7-4.6c-3.4,0-6.7,0-10,0C50,2.5,50,2.6,50,2.7c-0.3,1.7-0.5,3.4-0.7,5.2c-0.2,2.7,0,5.3,0.8,7.8
			c0.5,1.6,1.1,3.2,1.6,4.8c0.4,1.1,0.5,2.3,0.4,3.5c-0.1,1-0.4,2-0.7,3c0,0.1-0.1,0.2-0.1,0.4c2.6-0.3,5.1-0.3,7.6,0
			c-0.2-0.5-0.3-1-0.4-1.4c-0.1-0.2-0.2-0.3-0.4-0.3c-1.3-0.2-2.5-0.3-3.8-0.2C53.9,25.4,53.7,25.4,53.5,25.5z"/>
		<path class="st0" d="M49.4,30c0.5-0.1,1-0.2,1.4-0.2c1.7-0.2,3.4-0.3,5.2-0.2c1.5,0.1,3,0.3,4.4,0.4c0,0,0.1,0,0.1,0.1
			C56.9,30,53.1,30,49.4,30z"/>
	</g>
</g>
<g>
	<g>
		<path class="st1" d="M72,0c4.3,0,8.6,0,12.9,0c0.4,0.4,0.5,0.8,0.6,1.3c0.6,2.5,0.9,5,1,7.6c0,1.2-0.1,2.3-0.2,3.5
			c-0.1,1.3-0.4,2.7-0.8,4c-0.5,1.6-1.1,3.2-1.6,4.9c-0.3,1-0.4,2-0.2,3c0.3,1.5,0.8,2.8,1.5,4.1c0.3,0.5,0,1.3-0.5,1.5
			c-0.1,0-0.2,0.1-0.2,0.1c-0.2,0-0.3,0-0.5,0c0,0-0.1,0-0.1-0.1c-1.5-0.1-3-0.3-4.4-0.4c-1.7-0.1-3.4,0-5.2,0.2
			c-0.5,0.1-1,0.2-1.4,0.2c-0.2,0-0.3,0-0.5,0c-0.1,0-0.1-0.1-0.2-0.1c-0.6-0.3-0.8-0.9-0.6-1.6c0.4-0.8,0.7-1.5,1-2.3
			c0.6-1.6,0.8-3.2,0.2-4.9c-0.4-1.2-0.8-2.4-1.2-3.5c-0.7-2.2-1.2-4.4-1.3-6.7c-0.1-2.1,0-4.1,0.3-6.2c0.2-1.2,0.4-2.4,0.7-3.6
			C71.5,0.8,71.8,0.4,72,0z M77,25.5c0-0.1,0-0.1,0-0.2c0.5-1.4,0.4-2.8,0-4.2c-0.4-1.1-0.8-2.3-1.1-3.4c-1.1-3.2-1.5-6.5-1.3-9.8
			c0-0.3,0-0.6,0.1-0.9c0.1,0,0.1,0,0.1,0c1.2,0,2.4,0,3.7,0c0.7,0,1,0.2,1.2,0.9c0,0.2,0.1,0.4,0.1,0.5c0.2,1-0.1,1.9-0.3,2.9
			c-0.1,0.6-0.3,1.2-0.2,1.8c0.1,0.5,0.5,0.8,1.1,0.8c0.6,0,1-0.2,1.1-0.8c0.1-0.3,0.1-0.6,0-0.9c-0.1-0.7-0.3-1.3-0.4-1.9
			c-0.2-0.9-0.2-1.8,0.1-2.6c0.2-0.4,0.5-0.6,0.9-0.6c0.6,0,1.2,0,1.8,0c0.1,0,0.2,0,0.4,0c-0.2-1.6-0.4-3.1-0.7-4.6
			c-3.4,0-6.7,0-10,0c0,0.1-0.1,0.3-0.1,0.4c-0.3,1.7-0.5,3.4-0.7,5.2c-0.2,2.7,0,5.3,0.8,7.8c0.5,1.6,1.1,3.2,1.6,4.8
			c0.4,1.1,0.5,2.3,0.4,3.5c-0.1,1-0.4,2-0.7,3c0,0.1-0.1,0.2-0.1,0.4c2.6-0.3,5.1-0.3,7.6,0c-0.2-0.5-0.3-1-0.4-1.4
			c-0.1-0.2-0.2-0.3-0.4-0.3c-1.3-0.2-2.5-0.3-3.8-0.2C77.4,25.4,77.2,25.4,77,25.5z"/>
		<path class="st5" d="M72.9,30c0.5-0.1,1-0.2,1.4-0.2c1.7-0.2,3.4-0.3,5.2-0.2c1.5,0.1,3,0.3,4.4,0.4c0,0,0.1,0,0.1,0.1
			C80.3,30,76.6,30,72.9,30z"/>
	</g>
</g>
<g>
	<g>
		<path class="st1" d="M95.5,0c4.3,0,8.6,0,12.9,0c0.4,0.4,0.5,0.8,0.6,1.3c0.6,2.5,0.9,5,1,7.6c0,1.2-0.1,2.3-0.2,3.5
			c-0.1,1.3-0.4,2.7-0.8,4c-0.5,1.6-1.1,3.2-1.6,4.9c-0.3,1-0.4,2-0.2,3c0.3,1.5,0.8,2.8,1.5,4.1c0.3,0.5,0,1.3-0.5,1.5
			c-0.1,0-0.2,0.1-0.2,0.1c-0.2,0-0.3,0-0.5,0c0,0-0.1,0-0.1-0.1c-1.5-0.1-3-0.3-4.4-0.4c-1.7-0.1-3.4,0-5.2,0.2
			c-0.5,0.1-1,0.2-1.4,0.2c-0.2,0-0.3,0-0.5,0c-0.1,0-0.1-0.1-0.2-0.1c-0.6-0.3-0.8-0.9-0.6-1.6c0.4-0.8,0.7-1.5,1-2.3
			c0.6-1.6,0.8-3.2,0.2-4.9c-0.4-1.2-0.8-2.4-1.2-3.5c-0.7-2.2-1.2-4.4-1.3-6.7c-0.1-2.1,0-4.1,0.3-6.2c0.2-1.2,0.4-2.4,0.7-3.6
			C95,0.8,95.3,0.4,95.5,0z M100.4,25.5c0-0.1,0-0.1,0-0.2c0.5-1.4,0.4-2.8,0-4.2c-0.4-1.1-0.8-2.3-1.1-3.4
			c-1.1-3.2-1.5-6.5-1.3-9.8c0-0.3,0-0.6,0.1-0.9c0.1,0,0.1,0,0.1,0c1.2,0,2.4,0,3.7,0c0.7,0,1,0.2,1.2,0.9c0,0.2,0.1,0.4,0.1,0.5
			c0.2,1-0.1,1.9-0.3,2.9c-0.1,0.6-0.3,1.2-0.2,1.8c0.1,0.5,0.5,0.8,1.1,0.8c0.6,0,1-0.2,1.1-0.8c0.1-0.3,0.1-0.6,0-0.9
			c-0.1-0.7-0.3-1.3-0.4-1.9c-0.2-0.9-0.2-1.8,0.1-2.6c0.2-0.4,0.5-0.6,0.9-0.6c0.6,0,1.2,0,1.8,0c0.1,0,0.2,0,0.4,0
			c-0.2-1.6-0.4-3.1-0.7-4.6c-3.4,0-6.7,0-10,0c0,0.1-0.1,0.3-0.1,0.4c-0.3,1.7-0.5,3.4-0.7,5.2c-0.2,2.7,0,5.3,0.8,7.8
			c0.5,1.6,1.1,3.2,1.6,4.8c0.4,1.1,0.5,2.3,0.4,3.5c-0.1,1-0.4,2-0.7,3c0,0.1-0.1,0.2-0.1,0.4c2.6-0.3,5.1-0.3,7.6,0
			c-0.2-0.5-0.3-1-0.4-1.4c-0.1-0.2-0.2-0.3-0.4-0.3c-1.3-0.2-2.5-0.3-3.8-0.2C100.9,25.4,100.7,25.4,100.4,25.5z"/>
		<path class="st5" d="M96.4,30c0.5-0.1,1-0.2,1.4-0.2c1.7-0.2,3.4-0.3,5.2-0.2c1.5,0.1,3,0.3,4.4,0.4c0,0,0.1,0,0.1,0.1
			C103.8,30,100.1,30,96.4,30z"/>
	</g>
</g>
<g>
	<g>
		<path class="st0" d="M1.6,0c4.3,0,8.6,0,12.9,0c0.4,0.4,0.5,0.8,0.6,1.3c0.6,2.5,0.9,5,1,7.6c0,1.2-0.1,2.3-0.2,3.5
			c-0.1,1.3-0.4,2.7-0.8,4c-0.5,1.6-1.1,3.2-1.6,4.9c-0.3,1-0.4,2-0.2,3c0.3,1.5,0.8,2.8,1.5,4.1c0.3,0.5,0,1.3-0.5,1.5
			c-0.1,0-0.2,0.1-0.2,0.1c-0.2,0-0.3,0-0.5,0c0,0-0.1,0-0.1-0.1c-1.5-0.1-3-0.3-4.4-0.4c-1.7-0.1-3.4,0-5.2,0.2
			c-0.5,0.1-1,0.2-1.4,0.2c-0.2,0-0.3,0-0.5,0c-0.1,0-0.1-0.1-0.2-0.1C1.2,29.6,1,29,1.3,28.3c0.4-0.8,0.7-1.5,1-2.3
			c0.6-1.6,0.8-3.2,0.2-4.9c-0.4-1.2-0.8-2.4-1.2-3.5c-0.7-2.2-1.2-4.4-1.3-6.7c-0.1-2.1,0-4.1,0.3-6.2c0.2-1.2,0.4-2.4,0.7-3.6
			C1.1,0.8,1.4,0.4,1.6,0z M6.6,25.5c0-0.1,0-0.1,0-0.2c0.5-1.4,0.4-2.8,0-4.2c-0.4-1.1-0.8-2.3-1.1-3.4c-1.1-3.2-1.5-6.5-1.3-9.8
			c0-0.3,0-0.6,0.1-0.9c0.1,0,0.1,0,0.1,0c1.2,0,2.4,0,3.7,0c0.7,0,1,0.2,1.2,0.9c0,0.2,0.1,0.4,0.1,0.5c0.2,1-0.1,1.9-0.3,2.9
			c-0.1,0.6-0.3,1.2-0.2,1.8c0.1,0.5,0.5,0.8,1.1,0.8c0.6,0,1-0.2,1.1-0.8c0.1-0.3,0.1-0.6,0-0.9c-0.1-0.7-0.3-1.3-0.4-1.9
			c-0.2-0.9-0.2-1.8,0.1-2.6c0.2-0.4,0.5-0.6,0.9-0.6c0.6,0,1.2,0,1.8,0c0.1,0,0.2,0,0.4,0c-0.2-1.6-0.4-3.1-0.7-4.6
			c-3.4,0-6.7,0-10,0C3.1,2.5,3,2.6,3,2.7C2.7,4.4,2.5,6.1,2.4,7.9c-0.2,2.7,0,5.3,0.8,7.8c0.5,1.6,1.1,3.2,1.6,4.8
			c0.4,1.1,0.5,2.3,0.4,3.5c-0.1,1-0.4,2-0.7,3c0,0.1-0.1,0.2-0.1,0.4c2.6-0.3,5.1-0.3,7.6,0c-0.2-0.5-0.3-1-0.4-1.4
			c-0.1-0.2-0.2-0.3-0.4-0.3c-1.3-0.2-2.5-0.3-3.8-0.2C7,25.4,6.8,25.4,6.6,25.5z"/>
		<path class="st0" d="M2.5,30c0.5-0.1,1-0.2,1.4-0.2c1.7-0.2,3.4-0.3,5.2-0.2c1.5,0.1,3,0.3,4.4,0.4c0,0,0.1,0,0.1,0.1
			C9.9,30,6.2,30,2.5,30z"/>
	</g>
</g>
</svg>
